Easy Cleaning with the janitor Package
…
Demo

get_dupes(my_ipeds, unit_id)

# A tibble: 0 × 5
# ℹ 5 variables: unit_id <dbl>, dupe_count <int>, institution_name <chr>,
#   bachelors <dbl>, certificate <dbl>

get_dupes(my_ipeds, institution_name)

# A tibble: 191 × 5
   institution_name                dupe_count unit_id bachelors certificate
   <chr>                                <int>   <dbl>     <dbl>       <dbl>
 1 Cortiva Institute                        6  128896        NA          67
 2 Cortiva Institute                        6  134574        NA          69
 3 Cortiva Institute                        6  215044        NA          76
 4 Cortiva Institute                        6  387925        NA          68
 5 Cortiva Institute                        6  434308        NA          81
 6 Cortiva Institute                        6  438285        NA          69
 7 Academy of Beauty Professionals          4  421771        NA          56
 8 Academy of Beauty Professionals          4  489122        NA          54
 9 Academy of Beauty Professionals          4  489131        NA          68
10 Academy of Beauty Professionals          4  489140        NA          54
# ℹ 181 more rows
…
